…
select()

This function allows you to select the variables you want to work with.

# select just one variable
select(iris_tbl, Petal.Length) 
## # A tibble: 150 x 1
##    Petal.Length
##           <dbl>
##  1         1.40
##  2         1.40
##  3         1.30
##  4         1.50
##  5         1.40
##  6         1.70
##  7         1.40
##  8         1.50
##  9         1.40
## 10         1.50
## # ... with 140 more rows

# you can use commas to select one or more variables
select(iris_tbl, Petal.Length, Petal.Width)  
## # A tibble: 150 x 2
##    Petal.Length Petal.Width
##           <dbl>       <dbl>
##  1         1.40       0.200
##  2         1.40       0.200
##  3         1.30       0.200
##  4         1.50       0.200
##  5         1.40       0.200
##  6         1.70       0.400
##  7         1.40       0.300
##  8         1.50       0.200
##  9         1.40       0.200
## 10         1.50       0.100
## # ... with 140 more rows

# you can exclude variables using minus(-)
select(iris_tbl, -Species) 
## # A tibble: 150 x 4
##    Sepal.Length Sepal.Width Petal.Length Petal.Width
##           <dbl>       <dbl>        <dbl>       <dbl>
##  1         5.10        3.50         1.40       0.200
##  2         4.90        3.00         1.40       0.200
##  3         4.70        3.20         1.30       0.200
##  4         4.60        3.10         1.50       0.200
##  5         5.00        3.60         1.40       0.200
##  6         5.40        3.90         1.70       0.400
##  7         4.60        3.40         1.40       0.300
##  8         5.00        3.40         1.50       0.200
##  9         4.40        2.90         1.40       0.200
## 10         4.90        3.10         1.50       0.100
## # ... with 140 more rows

# with pipe
iris_tbl %>% 
  select(Petal.Length, Petal.Width)
## # A tibble: 150 x 2
##    Petal.Length Petal.Width
##           <dbl>       <dbl>
##  1         1.40       0.200
##  2         1.40       0.200
##  3         1.30       0.200
##  4         1.50       0.200
##  5         1.40       0.200
##  6         1.70       0.400
##  7         1.40       0.300
##  8         1.50       0.200
##  9         1.40       0.200
## 10         1.50       0.100
## # ... with 140 more rows

# you can use select to rearrange the variables
iris_tbl %>% 
  select(Petal.Length, Sepal.Length, 
         Petal.Width, Sepal.Width)
## # A tibble: 150 x 4
##    Petal.Length Sepal.Length Petal.Width Sepal.Width
##           <dbl>        <dbl>       <dbl>       <dbl>
##  1         1.40         5.10       0.200        3.50
##  2         1.40         4.90       0.200        3.00
##  3         1.30         4.70       0.200        3.20
##  4         1.50         4.60       0.200        3.10
##  5         1.40         5.00       0.200        3.60
##  6         1.70         5.40       0.400        3.90
##  7         1.40         4.60       0.300        3.40
##  8         1.50         5.00       0.200        3.40
##  9         1.40         4.40       0.200        2.90
## 10         1.50         4.90       0.100        3.10
## # ... with 140 more rows

filter()

This function returns only the rows that match some conditions. Let’s see examples!

# for one variable
iris_tbl %>% 
  filter(Sepal.Length > 5)
## # A tibble: 118 x 5
##    Sepal.Length Sepal.Width Petal.Length Petal.Width Species
##           <dbl>       <dbl>        <dbl>       <dbl> <fct>  
##  1         5.10        3.50         1.40       0.200 setosa 
##  2         5.40        3.90         1.70       0.400 setosa 
##  3         5.40        3.70         1.50       0.200 setosa 
##  4         5.80        4.00         1.20       0.200 setosa 
##  5         5.70        4.40         1.50       0.400 setosa 
##  6         5.40        3.90         1.30       0.400 setosa 
##  7         5.10        3.50         1.40       0.300 setosa 
##  8         5.70        3.80         1.70       0.300 setosa 
##  9         5.10        3.80         1.50       0.300 setosa 
## 10         5.40        3.40         1.70       0.200 setosa 
## # ... with 108 more rows

# for two or more variables you can use a comma (equivalent to the AND operator)
iris_tbl %>% 
  filter(Sepal.Length > 5,  Sepal.Width < 4)
## # A tibble: 114 x 5
##    Sepal.Length Sepal.Width Petal.Length Petal.Width Species
##           <dbl>       <dbl>        <dbl>       <dbl> <fct>  
##  1         5.10        3.50         1.40       0.200 setosa 
##  2         5.40        3.90         1.70       0.400 setosa 
##  3         5.40        3.70         1.50       0.200 setosa 
##  4         5.40        3.90         1.30       0.400 setosa 
##  5         5.10        3.50         1.40       0.300 setosa 
##  6         5.70        3.80         1.70       0.300 setosa 
##  7         5.10        3.80         1.50       0.300 setosa 
##  8         5.40        3.40         1.70       0.200 setosa 
##  9         5.10        3.70         1.50       0.400 setosa 
## 10         5.10        3.30         1.70       0.500 setosa 
## # ... with 104 more rows

# you can filter by strings with "==" operator
iris_tbl %>% 
  filter(Species == "setosa")
## # A tibble: 50 x 5
##    Sepal.Length Sepal.Width Petal.Length Petal.Width Species
##           <dbl>       <dbl>        <dbl>       <dbl> <fct>  
##  1         5.10        3.50         1.40       0.200 setosa 
##  2         4.90        3.00         1.40       0.200 setosa 
##  3         4.70        3.20         1.30       0.200 setosa 
##  4         4.60        3.10         1.50       0.200 setosa 
##  5         5.00        3.60         1.40       0.200 setosa 
##  6         5.40        3.90         1.70       0.400 setosa 
##  7         4.60        3.40         1.40       0.300 setosa 
##  8         5.00        3.40         1.50       0.200 setosa 
##  9         4.40        2.90         1.40       0.200 setosa 
## 10         4.90        3.10         1.50       0.100 setosa 
## # ... with 40 more rows

mutate()

This function allows you to make basic operations in the variable, such as: summation, subtraction, multiplications and so on. Mutate can also create new variables in the data frame.

# you can transform a single variable
iris_tbl %>% 
  mutate(Sepal.Length = Sepal.Length * 2)
## # A tibble: 150 x 5
##    Sepal.Length Sepal.Width Petal.Length Petal.Width Species
##           <dbl>       <dbl>        <dbl>       <dbl> <fct>  
##  1        10.2         3.50         1.40       0.200 setosa 
##  2         9.80        3.00         1.40       0.200 setosa 
##  3         9.40        3.20         1.30       0.200 setosa 
##  4         9.20        3.10         1.50       0.200 setosa 
##  5        10.0         3.60         1.40       0.200 setosa 
##  6        10.8         3.90         1.70       0.400 setosa 
##  7         9.20        3.40         1.40       0.300 setosa 
##  8        10.0         3.40         1.50       0.200 setosa 
##  9         8.80        2.90         1.40       0.200 setosa 
## 10         9.80        3.10         1.50       0.100 setosa 
## # ... with 140 more rows

# you can use commas for two or more trasformations
iris_tbl %>% 
  mutate(Sepal.Length = Sepal.Length * 2,
         Petal.Width = Petal.Width *10)
## # A tibble: 150 x 5
##    Sepal.Length Sepal.Width Petal.Length Petal.Width Species
##           <dbl>       <dbl>        <dbl>       <dbl> <fct>  
##  1        10.2         3.50         1.40          2. setosa 
##  2         9.80        3.00         1.40          2. setosa 
##  3         9.40        3.20         1.30          2. setosa 
##  4         9.20        3.10         1.50          2. setosa 
##  5        10.0         3.60         1.40          2. setosa 
##  6        10.8         3.90         1.70          4. setosa 
##  7         9.20        3.40         1.40          3. setosa 
##  8        10.0         3.40         1.50          2. setosa 
##  9         8.80        2.90         1.40          2. setosa 
## 10         9.80        3.10         1.50          1. setosa 
## # ... with 140 more rows

# you can create any variables you want
iris_tbl %>% 
  mutate(Lengh_rate = Sepal.Length / Petal.Length,
         Width_rate = Sepal.Width / Petal.Width)
## # A tibble: 150 x 7
##    Sepal.Length Sepal.Width Petal.Length Petal.Width Species Lengh_rate
##           <dbl>       <dbl>        <dbl>       <dbl> <fct>        <dbl>
##  1         5.10        3.50         1.40       0.200 setosa        3.64
##  2         4.90        3.00         1.40       0.200 setosa        3.50
##  3         4.70        3.20         1.30       0.200 setosa        3.62
##  4         4.60        3.10         1.50       0.200 setosa        3.07
##  5         5.00        3.60         1.40       0.200 setosa        3.57
##  6         5.40        3.90         1.70       0.400 setosa        3.18
##  7         4.60        3.40         1.40       0.300 setosa        3.29
##  8         5.00        3.40         1.50       0.200 setosa        3.33
##  9         4.40        2.90         1.40       0.200 setosa        3.14
## 10         4.90        3.10         1.50       0.100 setosa        3.27
## # ... with 140 more rows, and 1 more variable: Width_rate <dbl>

working together: select(), filter(), and mutate().

iris_tbl %>% 
  select(Petal.Length, Petal.Width) %>% 
  filter(Petal.Length > 1.5) %>% 
  mutate(Petal_rate = Petal.Length / Petal.Width)
## # A tibble: 113 x 3
##    Petal.Length Petal.Width Petal_rate
##           <dbl>       <dbl>      <dbl>
##  1         1.70       0.400       4.25
##  2         1.60       0.200       8.00
##  3         1.70       0.300       5.67
##  4         1.70       0.200       8.50
##  5         1.70       0.500       3.40
##  6         1.90       0.200       9.50
##  7         1.60       0.200       8.00
##  8         1.60       0.400       4.00
##  9         1.60       0.200       8.00
## 10         1.60       0.200       8.00
## # ... with 103 more rows

trasmute()

The transmute function also transforms or creates new variables, like mutate(). The difference betewen them is that transnmute() deletes all variables that it didn’t use. In other words, transmute() is like a mutate() plus select(). Let’s check it out!

# mutate() keeps all variables
iris_tbl %>% 
  mutate(Petal.Length = Petal.Length + 1)
## # A tibble: 150 x 5
##    Sepal.Length Sepal.Width Petal.Length Petal.Width Species
##           <dbl>       <dbl>        <dbl>       <dbl> <fct>  
##  1         5.10        3.50         2.40       0.200 setosa 
##  2         4.90        3.00         2.40       0.200 setosa 
##  3         4.70        3.20         2.30       0.200 setosa 
##  4         4.60        3.10         2.50       0.200 setosa 
##  5         5.00        3.60         2.40       0.200 setosa 
##  6         5.40        3.90         2.70       0.400 setosa 
##  7         4.60        3.40         2.40       0.300 setosa 
##  8         5.00        3.40         2.50       0.200 setosa 
##  9         4.40        2.90         2.40       0.200 setosa 
## 10         4.90        3.10         2.50       0.100 setosa 
## # ... with 140 more rows

# transmute() keeps only the variables used
iris_tbl %>% 
  transmute(Petal.Length = Petal.Length + 1)
## # A tibble: 150 x 1
##    Petal.Length
##           <dbl>
##  1         2.40
##  2         2.40
##  3         2.30
##  4         2.50
##  5         2.40
##  6         2.70
##  7         2.40
##  8         2.50
##  9         2.40
## 10         2.50
## # ... with 140 more rows

# you can create new variables
iris_tbl %>% 
  transmute(Petal_rate = Petal.Length / Petal.Width)
## # A tibble: 150 x 1
##    Petal_rate
##         <dbl>
##  1       7.00
##  2       7.00
##  3       6.50
##  4       7.50
##  5       7.00
##  6       4.25
##  7       4.67
##  8       7.50
##  9       7.00
## 10      15.0 
## # ... with 140 more rows

# you can trasmumte more than one variable using commas. Notice that the order of the variables in the data.frame is the same as the order written in the code.
iris_tbl %>%
  transmute(Species,
            Petal_rate = Petal.Length / Petal.Width)
## # A tibble: 150 x 2
##    Species Petal_rate
##    <fct>        <dbl>
##  1 setosa        7.00
##  2 setosa        7.00
##  3 setosa        6.50
##  4 setosa        7.50
##  5 setosa        7.00
##  6 setosa        4.25
##  7 setosa        4.67
##  8 setosa        7.50
##  9 setosa        7.00
## 10 setosa       15.0 
## # ... with 140 more rows
…
